<svg width="26" height="26" viewBox="0 0 26 26" fill="none" xmlns="http://www.w3.org/2000/svg">
<path d="M15.9939 9.99414L10.0039 15.9841" stroke="#888888" stroke-width="1.5" stroke-linecap="round" stroke-linejoin="round"/>
<path d="M15.995 15.9865L10 9.99023" stroke="#888888" stroke-width="1.5" stroke-linecap="round" stroke-linejoin="round"/>
<path fill-rule="evenodd" clip-rule="evenodd" d="M18.4175 1.4375H7.58125C3.805 1.4375 1.4375 4.11125 1.4375 7.895V18.105C1.4375 21.8887 3.79375 24.5625 7.58125 24.5625H18.4163C22.205 24.5625 24.5625 21.8887 24.5625 18.105V7.895C24.5625 4.11125 22.205 1.4375 18.4175 1.4375Z" stroke="#888888" stroke-width="1.5" stroke-linecap="round" stroke-linejoin="round"/>
</svg>
