<svg width="22" height="22" viewBox="0 0 22 22" fill="none"  xmlns="http://www.w3.org/2000/svg" style="cursor: pointer;">
  <path fill-rule="evenodd" clip-rule="evenodd" d="M18 2.57386V11.9756H20.5V2.6143C20.4982 2.59864 20.4948 2.58957 20.4928 2.58522C20.49 2.5789 20.4872 2.57564 20.4857 2.57415L20.4854 2.57386H18ZM16.5 3.80555L15.4597 2.53361C15.2017 2.21815 14.7932 2 14.2694 2H11.306H11.0161H6.34554H5.25037H4.89605C4.12516 2 3.63811 2.20041 3.3437 2.43882C3.06069 2.66801 2.82608 3.03578 2.74187 3.64009L2.73976 3.65522L2.73734 3.6703L1.5 11.3952V11.4671C1.5 12.2922 2.17701 12.9958 3.06003 12.9958H3.76867H6.34554H7.82723H9.32723V14.4958V17.8752C9.32723 19.0294 9.65337 19.4968 9.96255 19.7204L9.96329 19.7209C10.25 19.9286 10.652 20.0128 11.1011 19.9985C11.1206 19.9978 11.1398 19.997 11.1589 19.9961V17.0144C11.1589 14.841 12.4564 13.4388 13.563 12.6544C14.6548 11.8805 15.7542 11.555 15.9384 11.5094L15.9574 11.5047L15.9765 11.5005L16.2664 11.4368L16.5 11.3854V3.80555ZM22 12.0091V2.57227C21.9678 1.71148 21.2914 1.07386 20.4861 1.07386H17.7482C17.4896 1.07386 17.2415 1.13677 17.0284 1.25056C16.8699 1.3352 16.7307 1.44798 16.6208 1.58396C16.3692 1.27634 16.0564 1.02257 15.698 0.8381C15.2764 0.62109 14.7917 0.5 14.2694 0.5H11.306H11.0161H6.34554H5.25037H4.89605C2.83456 0.5 1.51391 1.58395 1.25622 3.43306L0 11.2758V11.4671C0 13.1249 1.35285 14.4958 3.06003 14.4958H3.76867H6.32723H6.34554H7.82723V15.9958V17.8752C7.82723 19.3099 8.24598 20.3301 9.08346 20.9358C10.4041 21.8922 12.2079 21.3503 12.2723 21.3184L12.6589 21.1909V17.0144C12.6589 14.0176 16.1698 12.9974 16.2987 12.9655L16.5886 12.9018C16.8463 13.2525 17.2972 13.4756 17.7804 13.4756H20.5183C21.3558 13.4756 22 12.8061 22 12.0091Z" fill="#0B0A0A"/>
</svg>
