<svg width="28" height="20" viewBox="0 0 28 20" fill="none" xmlns="http://www.w3.org/2000/svg">
  <path fill-rule="evenodd" clip-rule="evenodd" d="M19.1979 5.29107C19.1979 8.22817 16.8564 10.5833 13.9363 10.5833C11.0162 10.5833 8.67468 8.22817 8.67468 5.29107C8.67468 2.35284 11.0162 0 13.9363 0C16.8564 0 19.1979 2.35284 19.1979 5.29107ZM13.9363 20C9.64731 20 5.98511 19.32 5.98511 16.6002C5.98511 13.8792 9.6238 13.1745 13.9363 13.1745C18.2253 13.1745 21.8875 13.8545 21.8875 16.5754C21.8875 19.2953 18.2488 20 13.9363 20ZM21.4464 5.38657C21.4464 6.88383 20.9998 8.27864 20.2163 9.43817C20.1357 9.5575 20.2074 9.71849 20.3495 9.74325C20.5454 9.77703 20.748 9.79617 20.9539 9.80179C23.0077 9.85583 24.8511 8.52631 25.3604 6.52471C26.1148 3.55158 23.8998 0.882409 21.0793 0.882409C20.7726 0.882409 20.4793 0.915056 20.1939 0.973596C20.1547 0.982602 20.1133 1.00061 20.091 1.03551C20.0641 1.07829 20.0842 1.1357 20.1111 1.17285C20.9584 2.36728 21.4464 3.82402 21.4464 5.38657ZM24.8478 11.8907C26.2278 12.162 27.1355 12.7159 27.5116 13.5208C27.8295 14.1816 27.8295 14.9482 27.5116 15.6079C26.9363 16.8564 25.0817 17.2572 24.3609 17.3607C24.212 17.3833 24.0923 17.2538 24.108 17.1041C24.4762 13.6446 21.5471 12.0044 20.7894 11.6273C20.7569 11.6104 20.7502 11.5845 20.7535 11.5687C20.7558 11.5575 20.7692 11.5395 20.7938 11.5361C22.4335 11.5057 24.1964 11.7308 24.8478 11.8907ZM7.04639 9.80158C7.25233 9.79595 7.4538 9.77794 7.65078 9.74304C7.79293 9.71828 7.86456 9.55729 7.78398 9.43796C7.0005 8.27843 6.55392 6.88362 6.55392 5.38636C6.55392 3.8238 7.04191 2.36707 7.88918 1.17264C7.91605 1.13549 7.93507 1.07808 7.90933 1.0353C7.88695 1.00153 7.84442 0.98239 7.80636 0.973384C7.51983 0.914844 7.22659 0.882197 6.91991 0.882197C4.09939 0.882197 1.88439 3.55137 2.63989 6.5245C3.14915 8.5261 4.99256 9.85562 7.04639 9.80158ZM7.24617 11.5681C7.24953 11.585 7.24281 11.6097 7.21148 11.6277C6.45262 12.0049 3.52354 13.6451 3.89177 17.1034C3.90744 17.2543 3.7888 17.3826 3.63994 17.3612C2.91914 17.2577 1.06454 16.8569 0.48924 15.6084C0.170253 14.9476 0.170253 14.1821 0.48924 13.5213C0.865309 12.7164 1.7719 12.1625 3.15194 11.89C3.80447 11.7313 5.56617 11.5062 7.207 11.5366C7.23162 11.5399 7.24393 11.5579 7.24617 11.5681Z" fill="#0B0A0A"/>
</svg>
