<svg width="21" height="21" viewBox="0 0 21 21" fill="none" xmlns="http://www.w3.org/2000/svg">
<path d="M8.53749 16.7358H1.00195" stroke="#0B0A0A" stroke-width="1.5" stroke-linecap="round" stroke-linejoin="round"/>
<path fill-rule="evenodd" clip-rule="evenodd" d="M19.9961 16.7363C19.9961 18.3932 18.653 19.7363 16.9961 19.7363C15.3392 19.7363 13.9961 18.3932 13.9961 16.7363C13.9961 15.0782 15.3392 13.7363 16.9961 13.7363C18.653 13.7363 19.9961 15.0782 19.9961 16.7363Z" stroke="#0B0A0A" stroke-width="1.5" stroke-linecap="round" stroke-linejoin="round"/>
<path d="M12.4609 4.5229H19.9977" stroke="#0B0A0A" stroke-width="1.5" stroke-linecap="round" stroke-linejoin="round"/>
<path fill-rule="evenodd" clip-rule="evenodd" d="M1.00195 4.52344C1.00195 6.18153 2.34509 7.52344 4.00195 7.52344C5.65882 7.52344 7.00196 6.18153 7.00196 4.52344C7.00196 2.86658 5.65882 1.52344 4.00195 1.52344C2.34509 1.52344 1.00195 2.86658 1.00195 4.52344Z" stroke="#0B0A0A" stroke-width="1.5" stroke-linecap="round" stroke-linejoin="round"/>
</svg>
