<svg width="22" height="22" viewBox="0 0 22 22" fill="none" style="cursor: pointer;" xmlns="http://www.w3.org/2000/svg">
  <path fill-rule="evenodd" clip-rule="evenodd" d="M4 19.4261V10.0244H1.5V19.3857C1.50181 19.4014 1.50523 19.4104 1.50716 19.4148C1.50998 19.4211 1.5128 19.4244 1.51432 19.4258L1.51464 19.4261H4ZM5.5 18.1945L6.54031 19.4664C6.79832 19.7818 7.20682 20 7.7306 20H10.694H10.9839H15.6545H16.7496H17.104C17.8748 20 18.3619 19.7996 18.6563 19.5612C18.9393 19.332 19.1739 18.9642 19.2581 18.3599L19.2602 18.3448L19.2627 18.3297L20.5 10.6048V10.5329C20.5 9.70776 19.823 9.00418 18.94 9.00418H18.2313H15.6545H14.1728H12.6728V7.50418V4.12478C12.6728 2.97056 12.3466 2.50323 12.0375 2.2796L12.0367 2.27906C11.75 2.07143 11.348 1.98719 10.8989 2.00153C10.8794 2.00215 10.8602 2.00295 10.8411 2.00391V4.98558C10.8411 7.15899 9.54355 8.5612 8.43702 9.3456C7.34524 10.1195 6.24576 10.445 6.06161 10.4906L6.04263 10.4953L6.02354 10.4995L5.73364 10.5632L5.5 10.6146V18.1945ZM0 9.99091V19.4277C0.0322108 20.2885 0.708637 20.9261 1.51391 20.9261H4.25183C4.51044 20.9261 4.75846 20.8632 4.97159 20.7494C5.13009 20.6648 5.2693 20.552 5.37921 20.416C5.63081 20.7237 5.94361 20.9774 6.30198 21.1619C6.72359 21.3789 7.20827 21.5 7.7306 21.5H10.694H10.9839H15.6545H16.7496H17.104C19.1654 21.5 20.4861 20.416 20.7438 18.5669L22 10.7242V10.5329C22 8.87507 20.6471 7.50418 18.94 7.50418H18.2313H15.6728H15.6545H14.1728V6.00418V4.12478C14.1728 2.69013 13.754 1.66994 12.9165 1.0642C11.5959 0.107763 9.79209 0.649743 9.72767 0.681625L9.34114 0.809147V4.98558C9.34114 7.9824 5.83016 9.0026 5.70132 9.03448L5.41142 9.09824C5.15373 8.74755 4.70278 8.52438 4.21962 8.52438H1.4817C0.644214 8.52438 0 9.19389 0 9.99091Z" fill="#0B0A0A"/>
</svg>
