<svg width="30" height="30" viewBox="0 0 30 30" fill="none" xmlns="http://www.w3.org/2000/svg">
  <path fill-rule="evenodd" clip-rule="evenodd" d="M5.56115 2.5H23.6431C25.3338 2.5 26.7043 3.88237 26.7043 5.58773V9.70513C26.7043 11.4092 25.3338 12.7929 23.6431 12.7929H5.56115C3.87047 12.7929 2.5 11.4092 2.5 9.70513V5.58773C2.5 3.88237 3.87047 2.5 5.56115 2.5Z" stroke="#0B0A0A" stroke-width="1.5" stroke-linecap="round" stroke-linejoin="round"/>
  <path fill-rule="evenodd" clip-rule="evenodd" d="M5.56115 17.2071H23.6431C25.3338 17.2071 26.7043 18.5895 26.7043 20.2961V24.4122C26.7043 26.1176 25.3338 27.4999 23.6431 27.4999H5.56115C3.87047 27.4999 2.5 26.1176 2.5 24.4122V20.2961C2.5 18.5895 3.87047 17.2071 5.56115 17.2071Z" stroke="#0B0A0A" stroke-width="1.5" stroke-linecap="round" stroke-linejoin="round"/>
</svg>
