<svg width="30" height="30" viewBox="0 0 30 30" fill="none" xmlns="http://www.w3.org/2000/svg">
  <path d="M18.7701 9.23687V8.07062C18.7701 5.52687 16.7076 3.46437 14.1638 3.46437H8.07009C5.52759 3.46437 3.46509 5.52687 3.46509 8.07062V21.9831C3.46509 24.5269 5.52759 26.5894 8.07009 26.5894H14.1763C16.7126 26.5894 18.7701 24.5331 18.7701 21.9969V20.8181" stroke="#0B0A0A" stroke-width="1.5" stroke-linecap="round" stroke-linejoin="round"/>
  <path d="M27.2619 15.0267H12.2107" stroke="#0B0A0A" stroke-width="1.5" stroke-linecap="round" stroke-linejoin="round"/>
  <path d="M23.6016 11.3829L27.2616 15.0266L23.6016 18.6716" stroke="#0B0A0A" stroke-width="1.5" stroke-linecap="round" stroke-linejoin="round"/>
</svg>
