<svg width="18" height="4" viewBox="0 0 18 4" fill="none" xmlns="http://www.w3.org/2000/svg">
  <path d="M0 1.78516C0 2.61016 0.578571 3.28516 1.28571 3.28516H16.7143C17.4214 3.28516 18 2.61016 18 1.78516C18 0.960156 17.4214 0.285156 16.7143 0.285156H1.28571C0.578571 0.285156 0 0.960156 0 1.78516Z" fill="url(#paint0_linear)"/>
  <defs>
    <linearGradient id="paint0_linear" x1="18" y1="0.285156" x2="13.8726" y2="9.4993" gradientUnits="userSpaceOnUse">
      <stop stop-color="#EE7E62"/>
      <stop offset="1" stop-color="#83487C"/>
    </linearGradient>
  </defs>
</svg>
