<svg width="26" height="31" viewBox="0 0 26 31" fill="none" xmlns="http://www.w3.org/2000/svg">
  <g filter="url(#filter0_d)">
    <path fill-rule="evenodd" clip-rule="evenodd" d="M20.7593 16.7771C18.3916 19.4062 11.9477 23.8551 8.65106 25.2834C8.1249 25.5108 6.78351 25.9925 6.49445 25.9992C5.88059 26.0193 5.28947 25.6647 5.00365 25.096C4.89323 24.8753 4.56843 23.4336 4.4645 22.7914C4.15595 20.8379 3.9968 17.804 4.00005 14.7534C3.9968 11.5523 4.16894 8.37453 4.51322 6.44114C4.60416 5.91932 4.87049 4.71848 4.94844 4.52447C5.0946 4.16321 5.36093 3.87889 5.68247 3.70161C5.92931 3.56446 6.21188 3.49087 6.49445 3.50091C6.78351 3.5076 7.95926 3.93241 8.362 4.09631C11.5385 5.3674 18.2584 9.97677 20.7268 12.6862C20.9477 12.9304 21.555 13.586 21.6557 13.7198C21.8863 14.0208 22 14.3854 22 14.7534C22 15.0946 21.8993 15.4425 21.6914 15.7335C21.5843 15.884 20.9639 16.553 20.7593 16.7771Z" fill="white"/>
  </g>
  <defs>
    <filter id="filter0_d" x="0" y="0.5" width="26" height="30.5" filterUnits="userSpaceOnUse" color-interpolation-filters="sRGB">
      <feFlood flood-opacity="0" result="BackgroundImageFix"/>
      <feColorMatrix in="SourceAlpha" type="matrix" values="0 0 0 0 0 0 0 0 0 0 0 0 0 0 0 0 0 0 127 0"/>
      <feOffset dy="1"/>
      <feGaussianBlur stdDeviation="2"/>
      <feColorMatrix type="matrix" values="0 0 0 0 0 0 0 0 0 0 0 0 0 0 0 0 0 0 0.2 0"/>
      <feBlend mode="normal" in2="BackgroundImageFix" result="effect1_dropShadow"/>
      <feBlend mode="normal" in="SourceGraphic" in2="effect1_dropShadow" result="shape"/>
    </filter>
  </defs>
</svg>
