<svg width="50" height="50" viewBox="0 0 50 50" fill="none" xmlns="http://www.w3.org/2000/svg">
  <path fill-rule="evenodd" clip-rule="evenodd" d="M35.8355 1.875H14.163C6.61049 1.875 1.87549 7.2225 1.87549 14.79V35.21C1.87549 42.7775 6.58799 48.125 14.163 48.125H35.833C43.4105 48.125 48.1255 42.7775 48.1255 35.21V14.79C48.1255 7.2225 43.4105 1.875 35.8355 1.875Z" stroke="url(#paint0_linear)" stroke-width="2" stroke-linecap="round" stroke-linejoin="round"/>
  <path d="M16.0991 25.0009L22.0341 30.9334L33.8991 19.0684" stroke="url(#paint1_linear)" stroke-width="2" stroke-linecap="round" stroke-linejoin="round"/>
  <defs>
    <linearGradient id="paint0_linear" x1="48.1255" y1="1.875" x2="-7.6161" y2="22.6147" gradientUnits="userSpaceOnUse">
      <stop stop-color="#EE7E62"/>
      <stop offset="1" stop-color="#83487C"/>
    </linearGradient>
    <linearGradient id="paint1_linear" x1="33.8991" y1="19.0684" x2="15.278" y2="29.4623" gradientUnits="userSpaceOnUse">
      <stop stop-color="#EE7E62"/>
      <stop offset="1" stop-color="#83487C"/>
    </linearGradient>
  </defs>
</svg>
