<svg width="7" height="10" viewBox="0 0 7 10" fill="none" xmlns="http://www.w3.org/2000/svg">
<path d="M0.15834 8.825L3.97501 5L0.15834 1.175L1.33334 0L6.33334 5L1.33334 10L0.15834 8.825Z" fill="#0B0A0A"/>
</svg>
