<svg width="30" height="30" viewBox="0 0 30 30" fill="#0B0A0A" xmlns="http://www.w3.org/2000/svg">
<path d="M16.2227 15.4351L19.0511 12.6066L26.1222 19.6777C26.9032 20.4587 26.9032 21.7251 26.1222 22.5061V22.5061C25.3411 23.2872 24.0748 23.2872 23.2937 22.5061L16.2227 15.4351Z" stroke="#0B0A0A" stroke-width="1.5"/>
<rect x="9.85742" y="13.314" width="10" height="6" transform="rotate(-45 9.85742 13.314)" stroke="#0B0A0A" stroke-width="1.5"/>
<rect x="5.61523" y="14.728" width="4" height="10" rx="2" transform="rotate(-45 5.61523 14.728)" stroke="#0B0A0A" stroke-width="1.5"/>
<rect x="2" y="28" width="3" height="12" rx="1.5" transform="rotate(-90 2 28)" stroke="#0B0A0A" stroke-width="1.5"/>
<rect x="15.5156" y="4.82861" width="4" height="10" rx="2" transform="rotate(-45 15.5156 4.82861)" stroke="#0B0A0A" stroke-width="1.5"/>
</svg>
