<svg width="30" height="30" viewBox="0 0 30 30" fill="none" xmlns="http://www.w3.org/2000/svg">
  <path d="M6.32097 17.3202C5.04024 17.3202 3.99976 16.2797 3.99976 15.0009C3.99976 13.7221 5.04024 12.6797 6.32097 12.6797C7.60171 12.6797 8.64219 13.7221 8.64219 15.0009C8.64219 16.2797 7.60171 17.3202 6.32097 17.3202Z" fill="#0B0A0A"/>
  <path d="M15.0004 17.3202C13.7197 17.3202 12.6792 16.2797 12.6792 15.0009C12.6792 13.7221 13.7197 12.6797 15.0004 12.6797C16.2812 12.6797 17.3216 13.7221 17.3216 15.0009C17.3216 16.2797 16.2812 17.3202 15.0004 17.3202Z" fill="#0B0A0A"/>
  <path d="M23.6789 17.3202C22.3981 17.3202 21.3577 16.2797 21.3577 15.0009C21.3577 13.7221 22.3981 12.6797 23.6789 12.6797C24.9596 12.6797 26.0001 13.7221 26.0001 15.0009C26.0001 16.2797 24.9596 17.3202 23.6789 17.3202Z" fill="#0B0A0A"/>
</svg>
