<svg width="30" height="30" viewBox="0 0 30 30" fill="none" xmlns="http://www.w3.org/2000/svg">
<path d="M17.3202 23.6788C17.3202 24.9595 16.2797 26 15.0009 26C13.7221 26 12.6797 24.9595 12.6797 23.6788C12.6797 22.398 13.7221 21.3576 15.0009 21.3576C16.2797 21.3576 17.3202 22.398 17.3202 23.6788Z" fill="#0B0A0A"/>
<path d="M17.3202 14.9991C17.3202 16.2798 16.2797 17.3203 15.0009 17.3203C13.7221 17.3203 12.6797 16.2798 12.6797 14.9991C12.6797 13.7184 13.7221 12.6779 15.0009 12.6779C16.2797 12.6779 17.3202 13.7184 17.3202 14.9991Z" fill="#0B0A0A"/>
<path d="M17.3202 6.32136C17.3202 7.6021 16.2797 8.64258 15.0009 8.64258C13.7221 8.64258 12.6797 7.6021 12.6797 6.32136C12.6797 5.04062 13.7221 4.00014 15.0009 4.00014C16.2797 4.00014 17.3202 5.04062 17.3202 6.32136Z" fill="#0B0A0A"/>
</svg>
