<svg width="6" height="6" viewBox="0 0 6 6" fill="none" xmlns="http://www.w3.org/2000/svg">
  <rect width="6" height="6" rx="3" fill="url(#paint0_linear)"/>
  <defs>
    <linearGradient id="paint0_linear" x1="6" y1="0" x2="-1.23134" y2="2.69056" gradientUnits="userSpaceOnUse">
      <stop stop-color="#EE7E62"/>
      <stop offset="1" stop-color="#83487C"/>
    </linearGradient>
  </defs>
</svg>
