<svg width="10" height="7" viewBox="0 0 10 7" fill="none" xmlns="http://www.w3.org/2000/svg">
  <path d="M1.175 6.8418L5 3.02513L8.825 6.8418L10 5.6668L5 0.666797L-5.13609e-08 5.6668L1.175 6.8418Z" fill="url(#paint0_linear)"/>
  <defs>
    <linearGradient id="paint0_linear" x1="10" y1="0.666797" x2="8.15101" y2="8.71452" gradientUnits="userSpaceOnUse">
      <stop stop-color="#EE7E62"/>
      <stop offset="1" stop-color="#83487C"/>
    </linearGradient>
  </defs>
</svg>
